Pokemon Winner Prediction
…
colSums(is.na(fights))

##  First_pokemon Second_pokemon         Winner 
##              0              0              0

This combat dataset contains fifty thousand battles between pokemon and its corresponding winner. Here we have grouped by winner.

print('Winner Table')

## [1] "Winner Table"

wins <- group_by(fights, Winner)
summarise(wins, count = n())

## # A tibble: 783 x 2
##    Winner count
##     <int> <int>
##  1      1    37
##  2      2    46
##  3      3    89
##  4      4    70
##  5      5    55
##  6      6    64
##  7      7   115
##  8      8   119
##  9      9   114
## 10     10    19
## # ... with 773 more rows
…
